<define-tag pagetitle>DSA-4359-1 wireshark</define-tag>
<define-tag report_date>2018-12-27</define-tag>
<define-tag secrefs>CVE-2018-12086 CVE-2018-18225 CVE-2018-18226 CVE-2018-18227 CVE-2018-19622 CVE-2018-19623 CVE-2018-19624 CVE-2018-19625 CVE-2018-19626 CVE-2018-19627 CVE-2018-19628</define-tag>
<define-tag packages>wireshark</define-tag>
<define-tag isvulnerable>yes</define-tag>
<define-tag fixed>yes</define-tag>
<define-tag fixed-section>no</define-tag>

#use wml::debian::security



</dl>
