<define-tag pagetitle>DSA-4349-1 tiff</define-tag>
<define-tag report_date>2018-11-30</define-tag>
<define-tag secrefs>CVE-2017-11613 CVE-2017-17095 CVE-2018-5784 CVE-2018-7456  CVE-2018-8905  CVE-2018-10963 CVE-2018-17101 CVE-2018-18557 CVE-2018-15209 CVE-2018-16335</define-tag>
<define-tag packages>tiff</define-tag>
<define-tag isvulnerable>yes</define-tag>
<define-tag fixed>yes</define-tag>
<define-tag fixed-section>no</define-tag>

#use wml::debian::security



</dl>
