<define-tag pagetitle>DSA-4619-1 libxmlrpc3-java</define-tag>
<define-tag report_date>2020-2-06</define-tag>
<define-tag secrefs>CVE-2019-17570 Bug#949089</define-tag>
<define-tag packages>libxmlrpc3-java</define-tag>
<define-tag isvulnerable>yes</define-tag>
<define-tag fixed>yes</define-tag>
<define-tag fixed-section>no</define-tag>

#use wml::debian::security



</dl>
