<define-tag pagetitle>DLA-2486-1 xorg-server</define-tag>
<define-tag report_date>2020-12-09</define-tag>
<define-tag secrefs>CVE-2020-14360 CVE-2020-25712</define-tag>
<define-tag packages>xorg-server</define-tag>
<define-tag isvulnerable>yes</define-tag>
<define-tag fixed>yes</define-tag>
<define-tag fixed-section>no</define-tag>

#use wml::debian::security

