<define-tag pagetitle>DLA-2277-1 openjpeg2</define-tag>
<define-tag report_date>2020-07-11</define-tag>
<define-tag secrefs>CVE-2019-12973 CVE-2020-6851 CVE-2020-8112 CVE-2020-15389 Bug#931292 Bug#950000 Bug#950184</define-tag>
<define-tag packages>openjpeg2</define-tag>
<define-tag isvulnerable>yes</define-tag>
<define-tag fixed>yes</define-tag>
<define-tag fixed-section>no</define-tag>

#use wml::debian::security

