<define-tag pagetitle>DLA-2388-1 nss</define-tag>
<define-tag report_date>2020-09-29</define-tag>
<define-tag secrefs>CVE-2018-12404 CVE-2018-18508 CVE-2019-11719 CVE-2019-11729 CVE-2019-11745 CVE-2019-17006 CVE-2019-17007 CVE-2020-6829 CVE-2020-12399 CVE-2020-12400 CVE-2020-12401 CVE-2020-12402 CVE-2020-12403</define-tag>
<define-tag packages>nss</define-tag>
<define-tag isvulnerable>yes</define-tag>
<define-tag fixed>yes</define-tag>
<define-tag fixed-section>no</define-tag>

#use wml::debian::security

