<define-tag pagetitle>DLA-1614-1 openjpeg2</define-tag>
<define-tag report_date>2018-12-22</define-tag>
<define-tag secrefs>CVE-2018-6616 CVE-2018-14423 Bug#904873 Bug#889683</define-tag>
<define-tag packages>openjpeg2</define-tag>
<define-tag isvulnerable>yes</define-tag>
<define-tag fixed>yes</define-tag>
<define-tag fixed-section>no</define-tag>

#use wml::debian::security

