<define-tag pagetitle>DLA-1527-2 ghostscript</define-tag>
<define-tag report_date>2018-10-1</define-tag>
<define-tag secrefs>Bug#909999</define-tag>
<define-tag packages>ghostscript</define-tag>
<define-tag isvulnerable>yes</define-tag>
<define-tag fixed>yes</define-tag>
<define-tag fixed-section>no</define-tag>

#use wml::debian::security

