<define-tag pagetitle>DLA-1389-1 apache2</define-tag>
<define-tag report_date>2018-5-30</define-tag>
<define-tag secrefs>CVE-2017-15710 CVE-2018-1301 CVE-2018-1312</define-tag>
<define-tag packages>apache2</define-tag>
<define-tag isvulnerable>yes</define-tag>
<define-tag fixed>yes</define-tag>
<define-tag fixed-section>no</define-tag>

#use wml::debian::security

