<define-tag pagetitle>DLA-1353-1 wireshark</define-tag>
<define-tag report_date>2018-4-18</define-tag>
<define-tag secrefs>CVE-2018-7322 CVE-2018-7323 CVE-2018-7324 CVE-2018-7332 CVE-2018-7334 CVE-2018-7335 CVE-2018-7336 CVE-2018-7337 CVE-2018-7417 CVE-2018-7418 CVE-2018-7419 CVE-2018-7420</define-tag>
<define-tag packages>wireshark</define-tag>
<define-tag isvulnerable>yes</define-tag>
<define-tag fixed>yes</define-tag>
<define-tag fixed-section>no</define-tag>

#use wml::debian::security

