<define-tag pagetitle>DSA-4436-1 imagemagick</define-tag>
<define-tag report_date>2019-4-28</define-tag>
<define-tag secrefs>CVE-2019-9956 CVE-2019-10650</define-tag>
<define-tag packages>imagemagick</define-tag>
<define-tag isvulnerable>yes</define-tag>
<define-tag fixed>yes</define-tag>
<define-tag fixed-section>no</define-tag>

#use wml::debian::security



</dl>
