<define-tag pagetitle>DLA-1879-1 jackson-databind</define-tag>
<define-tag report_date>2019-8-12</define-tag>
<define-tag secrefs>CVE-2019-14379 CVE-2019-14439 Bug#933393</define-tag>
<define-tag packages>jackson-databind</define-tag>
<define-tag isvulnerable>yes</define-tag>
<define-tag fixed>yes</define-tag>
<define-tag fixed-section>no</define-tag>

#use wml::debian::security

