<define-tag pagetitle>DLA-523-1 enigmail</define-tag>
<define-tag report_date>2016-6-23</define-tag>
<define-tag packages>enigmail</define-tag>
<define-tag isvulnerable>yes</define-tag>
<define-tag fixed>yes</define-tag>
<define-tag fixed-section>no</define-tag>

#use wml::debian::security

